{
  "images" : [
    {
      "size" : "20x20",
      "idiom" : "iphone",
      "filename" : "Icon-20x20@2x.png",
      "scale" : "2x"
    },
    {
      "size" : "20x20",
      "idiom" : "iphone",
      "filename" : "Icon-20x20@3x.png",
      "scale" : "3x"
    },
    {
      "size" : "29x29",
      "idiom" : "iphone",
      "filename" : "Icon-29x29@2x.png",
      "scale" : "2x"
    },
    {
      "size" : "29x29",
      "idiom" : "iphone",
      "filename" : "Icon-29x29@3x.png",
      "scale" : "3x"
    },
    {
      "size" : "40x40",
      "idiom" : "iphone",
      "filename" : "icon-40@2x-1.png",
      "scale" : "2x"
    },
    {
      "size" : "40x40",
      "idiom" : "iphone",
      "filename" : "icon-40@3x-1.png",
      "scale" : "3x"
    },
    {
      "size" : "60x60",
      "idiom" : "iphone",
      "filename" : "icon-60@2x-1.png",
      "scale" : "2x"
    },
    {
      "size" : "60x60",
      "idiom" : "iphone",
      "filename" : "icon-73.png",
      "scale" : "3x"
    },
    {
      "size" : "1024x1024",
      "idiom" : "ios-marketing",
      "filename" : "icon-1.png",
      "scale" : "1x"
    },
    {
      "filename" : "icon-40.png",
      "unassigned" : true
    },
    {
      "filename" : "icon-40@2x.png",
      "unassigned" : true
    },
    {
      "filename" : "icon-40@3x.png",
      "unassigned" : true
    },
    {
      "filename" : "icon-50.png",
      "unassigned" : true
    },
    {
      "filename" : "icon-50@2x.png",
      "unassigned" : true
    },
    {
      "filename" : "icon-60.png",
      "unassigned" : true
    },
    {
      "filename" : "icon-60@2x.png",
      "unassigned" : true
    },
    {
      "filename" : "icon-60@3x.png",
      "unassigned" : true
    },
    {
      "filename" : "icon-72.png",
      "unassigned" : true
    },
    {
      "filename" : "icon-72@2x.png",
      "unassigned" : true
    },
    {
      "filename" : "icon-76.png",
      "unassigned" : true
    },
    {
      "filename" : "icon-76@2x.png",
      "unassigned" : true
    },
    {
      "filename" : "icon-83.5@2x.png",
      "unassigned" : true
    },
    {
      "filename" : "icon-1024.png",
      "unassigned" : true
    },
    {
      "filename" : "icon-small.png",
      "unassigned" : true
    },
    {
      "filename" : "icon-small@2x.png",
      "unassigned" : true
    },
    {
      "filename" : "icon-small@3x.png",
      "unassigned" : true
    },
    {
      "filename" : "icon.png",
      "unassigned" : true
    },
    {
      "filename" : "icon@2x.png",
      "unassigned" : true
    }
  ],
  "info" : {
    "version" : 1,
    "author" : "xcode"
  }
}